<svg id="baseline-warning-24px" xmlns="http://www.w3.org/2000/svg" viewBox="0 0 29 29">
  <defs>
    <style>
      .cls-1 {
        fill: none;
      }

      .cls-2 {
        fill: #ffb300;
      }
    </style>
  </defs>
  <path id="Path_3822" data-name="Path 3822" class="cls-1" d="M0,0H29V29H0Z"/>
  <path id="Path_3823" data-name="Path 3823" class="cls-2" d="M1,24.958H27.583L14.292,2Zm14.5-3.625H13.083V18.917H15.5Zm0-4.833H13.083V11.667H15.5Z" transform="translate(0.208 0.417)"/>
</svg>
