<svg xmlns="http://www.w3.org/2000/svg" viewBox="0 0 22.307 22.307">

    <g id="grid">
        <path id="Rectangle_238" d="M0 0h10.197v10.197H0z" class="svg-color" data-name="Rectangle 238"/>
        <path id="Rectangle_239" d="M0 0h10.197v10.197H0z" class="svg-color" data-name="Rectangle 239" transform="translate(12.109)"/>
        <path id="Rectangle_240" d="M0 0h10.197v10.197H0z" class="svg-color" data-name="Rectangle 240" transform="translate(0 12.109)"/>
        <path id="Rectangle_241" d="M0 0h10.197v10.197H0z" class="svg-color" data-name="Rectangle 241" transform="translate(12.109 12.109)"/>
    </g>
</svg>
