<svg xmlns="http://www.w3.org/2000/svg" viewBox="0 0 29.248 29.751">
  <defs>
    <style>
      .cls-1 {
        fill: none;
      }

      .cls-2 {
        fill: #fff;
      }
    </style>
  </defs>
  <g id="baseline-highlight_off-24px" transform="translate(0.001 -0.001)">
    <path id="Path_3816" data-name="Path 3816" class="cls-1" d="M0,0H29.248V29.751H0Z"/>
    <path id="Path_3817" data-name="Path 3817" class="cls-2" d="M17.343,9.438l-3.156,3.211L11.03,9.438,9.312,11.186,12.468,14.4,9.312,17.607l1.718,1.748,3.156-3.211,3.156,3.211,1.718-1.748L15.905,14.4l3.156-3.211ZM14.187,2A12.282,12.282,0,0,0,2,14.4a12.282,12.282,0,0,0,12.187,12.4A12.282,12.282,0,0,0,26.373,14.4,12.282,12.282,0,0,0,14.187,2Zm0,22.313a9.918,9.918,0,0,1,0-19.834,9.918,9.918,0,0,1,0,19.834Z" transform="translate(0.437 0.479)"/>
  </g>
</svg>
