<svg xmlns="http://www.w3.org/2000/svg" viewBox="0 0 95.324 91.387">
    <defs>
        <style>
            .cls-1{fill:url(#linear-gradient)}
        </style>
        <linearGradient id="linear-gradient" x1=".5" x2=".5" y2="1" gradientUnits="objectBoundingBox">
            <stop offset="0" stop-color="#093bc1"/>
            <stop offset="1" stop-color="#06b0d6"/>
        </linearGradient>
    </defs>
    <g id="send" transform="rotate(13 8.158 71.602)">
        <g id="Group_48" data-name="Group 48">
            <g id="Group_47" data-name="Group 47">
                <path id="Path_50" d="M80.369.258a1.584 1.584 0 0 0-1.5-.125L.948 34.29a1.584 1.584 0 0 0 0 2.9l38.011 16.663v17.1a1.584 1.584 0 0 0 2.7 1.121l11.859-11.839 25.349 11.112a1.584 1.584 0 0 0 2.22-1.451V1.584a1.583 1.583 0 0 0-.718-1.326zM39.577 50.665L35.3 48.791 50.284 29.4a1.584 1.584 0 0 0-2.506-1.937L32.312 47.481 5.528 35.74 74.456 5.525zm2.55 16.466V55.242l8.273 3.627zm35.792.341l-35.352-15.5L77.919 6.224z" class="cls-1" data-name="Path 50"/>
            </g>
        </g>
        <g id="Group_50" data-name="Group 50" transform="translate(42.168 65.365)">
            <g id="Group_49" data-name="Group 49">
                <path id="Path_51" d="M278.511 413.064a1.584 1.584 0 0 0-2.221.285l-9.7 12.554a1.584 1.584 0 1 0 2.506 1.937l9.7-12.554a1.584 1.584 0 0 0-.285-2.222z" class="cls-1" data-name="Path 51" transform="translate(-266.259 -412.733)"/>
            </g>
        </g>
        <g id="Group_52" data-name="Group 52" transform="translate(19.157 77.906)">
            <g id="Group_51" data-name="Group 51">
                <path id="Path_52" d="M123.526 492.249a1.584 1.584 0 0 0-2.222.283l-.01.013a1.584 1.584 0 1 0 2.5 1.938l.01-.013a1.584 1.584 0 0 0-.278-2.221z" class="cls-1" data-name="Path 52" transform="translate(-120.963 -491.918)"/>
            </g>
        </g>
        <g id="Group_54" data-name="Group 54" transform="translate(22.278 62.031)">
            <g id="Group_53" data-name="Group 53">
                <path id="Path_53" d="M152.377 392.011a1.584 1.584 0 0 0-2.221.285L141 404.144a1.584 1.584 0 1 0 2.506 1.937l9.155-11.848a1.584 1.584 0 0 0-.284-2.222z" class="cls-1" data-name="Path 53" transform="translate(-140.67 -391.681)"/>
            </g>
        </g>
        <g id="Group_56" data-name="Group 56" transform="translate(51.034 22.183)">
            <g id="Group_55" data-name="Group 55">
                <path id="Path_54" d="M324.813 140.4a1.584 1.584 0 0 0-2.222.283l-.019.025a1.584 1.584 0 1 0 2.5 1.939l.019-.025a1.584 1.584 0 0 0-.278-2.222z" class="cls-1" data-name="Path 54" transform="translate(-322.24 -140.068)"/>
            </g>
        </g>
    </g>
</svg>
