<svg xmlns="http://www.w3.org/2000/svg" xmlns:xlink="http://www.w3.org/1999/xlink" viewBox="0 0 374.74 142.641">
  <defs>
    <style>
      .cls-1 {
        fill: #848484;
      }

      .cls-2 {
        clip-path: url(#clip-path);
      }

      .cls-3 {
        opacity: 0.49;
        fill: url(#linear-gradient);
      }

      .cls-4 {
        fill: url(#linear-gradient-2);
      }
    </style>
    <clipPath id="clip-path">
      <rect id="Rectangle_17943" data-name="Rectangle 17943" class="cls-1" width="374.74" height="142.641" transform="translate(-29.797 192.359)"/>
    </clipPath>
    <linearGradient id="linear-gradient" x1="0.703" y1="0.152" x2="0.407" y2="0.543" gradientUnits="objectBoundingBox">
      <stop offset="0" stop-color="#093bc1"/>
      <stop offset="1" stop-color="#06b0d6"/>
    </linearGradient>
    <linearGradient id="linear-gradient-2" x1="0.636" y1="0.356" x2="0.264" y2="0.393" gradientUnits="objectBoundingBox">
      <stop offset="0" stop-color="#093bc1"/>
      <stop offset="0" stop-color="#093ec2"/>
      <stop offset="1" stop-color="#06b0d6"/>
    </linearGradient>
  </defs>
  <g id="topo" class="cls-2" transform="translate(29.797 -192.359)">
    <path id="Filled.Graph" class="cls-3" d="M0,223.055V118.085s148.432,68.851,267.029,73.175c128.241-4.191,61.808,3.613,161.7-35.905,85.361-32.939,193.827-90.639,275.534-88.312s81.245,7.064,168.674,37.973c56.518,15.014,85.758,15.2,124.518,8.831C1142.617,90,1278.149,24.508,1287.237,0c0,9.476,16.028,682.663,16.028,682.663H0Z" transform="translate(891.299 382.352) rotate(180)"/>
    <path id="Filled.Graph-2" data-name="Filled.Graph" class="cls-4" d="M0,223.055V118.085s92.865-17.393,211.462-13.069c111.7-3.65,168.166,14.767,220.882,19.78,41.994,3.006,65.207-2.1,91.664-10.918,85.361-32.939,137.293-49.218,219-46.891S807.3,115.205,864.7,128.982C921.219,144,951.08,190.456,989.84,184.089,1135,160.243,1278.149,24.508,1287.237,0c0,9.476,16.028,682.663,16.028,682.663H0Z" transform="matrix(-0.998, -0.07, 0.07, -0.998, 755.797, 438.281)"/>
  </g>
</svg>
