<svg id="baseline-highlight_off-24px" xmlns="http://www.w3.org/2000/svg" viewBox="0 0 29 29">
  <defs>
    <style>
      .cls-1 {
        fill: none;
      }

      .cls-2 {
        fill: #ff4e4e;
      }
    </style>
  </defs>
  <path id="Path_3816" data-name="Path 3816" class="cls-1" d="M0,0H29V29H0Z"/>
  <path id="Path_3817" data-name="Path 3817" class="cls-2" d="M17.213,9.25l-3.13,3.13-3.13-3.13-1.7,1.7,3.13,3.13-3.13,3.13,1.7,1.7,3.13-3.13,3.13,3.13,1.7-1.7-3.13-3.13,3.13-3.13ZM14.083,2A12.083,12.083,0,1,0,26.167,14.083,12.072,12.072,0,0,0,14.083,2Zm0,21.75a9.667,9.667,0,1,1,9.667-9.667A9.68,9.68,0,0,1,14.083,23.75Z" transform="translate(0.417 0.417)"/>
</svg>
