<svg xmlns="http://www.w3.org/2000/svg" viewBox="0 0 19.824 19.771">
    <defs>
        <style>
            .cls-1-cash{fill:currentColor;stroke:currentColor;stroke-width:.5px}
        </style>
    </defs>
    <g id="cash" transform="translate(.25 .25)">
        <path id="Path_64" d="M25.195 16.231L29.25 17.3l1.023-4.055-.779-.2-.665 2.529a9.634 9.634 0 1 0 .13 9.927l-.7-.378a8.845 8.845 0 1 1 .039-8.893l-2.9-.771z" class="cls-1-cash" data-name="Path 64" transform="translate(-11 -11)"/>
        <path id="Path_65" d="M191.772 161.807v-.736a2.548 2.548 0 0 0 1.636-.614 1.862 1.862 0 0 0 .614-1.432 1.607 1.607 0 0 0-.531-1.353 3.557 3.557 0 0 0-1.679-.735h-.039v-1.884a3.09 3.09 0 0 1 1.432.574l.657-.9a4.008 4.008 0 0 0-2.088-.736v-.491h-.614v.492a2.513 2.513 0 0 0-1.558.614 1.863 1.863 0 0 0-.614 1.432 1.573 1.573 0 0 0 .531 1.31 3.848 3.848 0 0 0 1.636.7v1.923a3.405 3.405 0 0 1-1.719-.861l-.736.861a4.2 4.2 0 0 0 2.458 1.105v.736zm.039-3.563a2.476 2.476 0 0 1 .818.37.894.894 0 0 1 .2.574.666.666 0 0 1-.287.574 1.487 1.487 0 0 1-.736.287zm-1.432-1.758a.778.778 0 0 1-.2-.531.758.758 0 0 1 .244-.574 1.34 1.34 0 0 1 .735-.287v1.762a1.964 1.964 0 0 1-.779-.371z" class="cls-1-cash" data-name="Path 65" transform="translate(-181.711 -147.895)"/>
    </g>
</svg>
