<svg xmlns="http://www.w3.org/2000/svg" viewBox="0 0 10.846 10.725">
  <g id="close" transform="translate(0 0)">
    <path id="Path_95" data-name="Path 95" class="svg-color" d="M6.382,5.363l4.265-4.217a.665.665,0,0,0,0-.948.683.683,0,0,0-.959,0L5.423,4.415,1.158.2A.683.683,0,0,0,.2.2a.665.665,0,0,0,0,.948L4.464,5.363.2,9.581a.665.665,0,0,0,0,.948.684.684,0,0,0,.959,0L5.423,6.311l4.265,4.217a.683.683,0,0,0,.959,0,.665.665,0,0,0,0-.948Z" transform="translate(0 -0.001)"/>
  </g>
</svg>
