<svg xmlns="http://www.w3.org/2000/svg" viewBox="0 0 15.77 17.66">
    <defs>
        <style>
            .cls-1,.cls-2,.cls-3{stroke-miterlimit:10}
            .cls-2,.cls-3,.cls-5{fill:none}
            .cls-2{stroke-linecap:square}.cls-4{stroke:none}
        </style>
    </defs>
    <g id="Delete-ico" transform="translate(0 -1.001)">
        <g id="Rectangle_2" class="cls-1 svg-color svg-stroke" data-name="Rectangle 2" transform="translate(0 1.964)">
            <rect width="15.77" height="1.855" class="cls-4" rx=".928"/>
            <rect width="14.77" height=".855" x=".5" y=".5" class="cls-5" rx=".428"/>
        </g>
        <path id="Line_16" d="M1.5.5v8.349" class="cls-2 svg-stroke" data-name="Line 16" transform="translate(3.602 8.421)"/>
        <path id="Line_16-2" d="M1.5.5v9.2" class="cls-2 svg-stroke" data-name="Line 16" transform="translate(6.385 8.421)"/>
        <path id="Line_16-3" d="M1.5.5v8.349" class="cls-2 svg-stroke" data-name="Line 16" transform="translate(9.168 8.421)"/>
        <g id="Rectangle" class="cls-3 svg-stroke" transform="translate(1.855 2.891)">
            <rect width="12.059" height="15.77" class="cls-4" rx="1"/>
            <rect width="11.059" height="14.77" x=".5" y=".5" class="cls-5" rx=".5"/>
        </g>
        <path id="Line_2" d="M.5 1.5h5.566" class="cls-2 svg-stroke" data-name="Line 2" transform="translate(4.602)"/>
    </g>
</svg>