<svg xmlns="http://www.w3.org/2000/svg" xmlns:xlink="http://www.w3.org/1999/xlink" viewBox="0 0 1366 280">
  <defs>
    <style>
      .cls-1 {
        fill: #fff;
      }

      .cls-2 {
        clip-path: url(#clip-path);
      }

      .cls-3 {
        opacity: 0.3;
      }

      .cls-4 {
        opacity: 0.201;
      }

      .cls-5 {
        opacity: 0.7;
        fill: url(#linear-gradient);
      }
    </style>
    <clipPath id="clip-path">
      <rect id="Rectangle_17942" data-name="Rectangle 17942" class="cls-1" width="1366" height="280" transform="translate(0 488)"/>
    </clipPath>
    <linearGradient id="linear-gradient" x1="0.5" x2="0.5" y2="1" gradientUnits="objectBoundingBox">
      <stop offset="0"/>
      <stop offset="1" stop-color="#fff" stop-opacity="0"/>
    </linearGradient>
  </defs>
  <g id="ondas" class="cls-2" transform="translate(0 -488)">
    <g id="Group_774" data-name="Group 774" class="cls-3" transform="translate(1178 -199.879)">
      <g id="Products_Sold_Graph" data-name="Products Sold Graph" class="cls-4" transform="translate(-1544.208 572.945)">
        <path id="Filled.Graph" class="cls-5" d="M330,728.623V527.514s284.379,131.911,511.6,140.2c245.7-8.029,288.241-64.482,479.62-140.2,163.542-63.108,326.636-80.428,483.178-75.969s292.223,72.632,477.134,79.618c326.206-28.146,492.637-170.451,514.676-229.886V803.418L330,803.641Z" transform="translate(-330 -301.277)"/>
      </g>
      <g id="Products_Sold_Graph-2" data-name="Products Sold Graph" class="cls-4" transform="translate(-1661.276 787.725)">
        <path id="Filled.Graph-2" data-name="Filled.Graph" class="cls-5" d="M330,728.623V527.514s284.379,131.911,511.6,140.2c245.7-8.029,288.241-64.482,479.62-140.2,163.542-63.108,326.636-80.428,483.178-75.969s292.223,72.632,477.134,79.618c326.206-28.146,492.637-170.451,514.676-229.886V803.418L330,803.641Z" transform="translate(-330 -301.277)"/>
      </g>
      <g id="Total_Views_Graph" data-name="Total Views Graph" class="cls-4" transform="translate(-1796.202 656.615)">
        <path id="Filled.Graph-3" data-name="Filled.Graph" class="cls-5" d="M330,661.524v-307.1S607.56,659.746,835.564,671.236c254.4-2.588,139.816-172.021,429.22-217.349,223.155-34.868,380.759,89.287,537.3,93.746s264.577-125.3,478.147-134.311c276.705,13.576,498.741,186.934,515.97,196.255V736.319L330,736.542Z" transform="translate(-330 -354.422)"/>
      </g>
      <g id="Total_Views_Graph-2" data-name="Total Views Graph" class="cls-4" transform="translate(-2107.556 711.97)">
        <path id="Filled.Graph-4" data-name="Filled.Graph" class="cls-5" d="M330,661.524v-307.1S607.56,659.746,835.564,671.236c254.4-2.588,256.481-158.506,480.028-243.861,187.147-67.02,329.951,115.8,486.492,120.257s264.577-125.3,478.147-134.311c276.705,13.576,498.741,186.934,515.97,196.255V736.319L330,736.542Z" transform="translate(-330 -354.422)"/>
      </g>
    </g>
  </g>
</svg>
