<svg xmlns="http://www.w3.org/2000/svg" xmlns:xlink="http://www.w3.org/1999/xlink" viewBox="0 0 1366 223">
  <defs>
    <style>
      .cls-1, .cls-5 {
        fill: url(#linear-gradient);
      }

      .cls-2 {
        clip-path: url(#clip-path);
      }

      .cls-3 {
        opacity: 0.3;
      }

      .cls-4 {
        opacity: 0.201;
      }

      .cls-5 {
        opacity: 0.7;
      }
    </style>
    <linearGradient id="linear-gradient" x1="0.5" x2="0.5" y2="1" gradientUnits="objectBoundingBox">
      <stop offset="0" stop-color="#0867c9"/>
      <stop offset="1" stop-color="#fff" stop-opacity="0"/>
    </linearGradient>
    <clipPath id="clip-path">
      <rect id="Rectangle_17901" data-name="Rectangle 17901" class="cls-1" width="1366" height="223" transform="translate(289 488)"/>
    </clipPath>
  </defs>
  <g id="ondas" class="cls-2" transform="translate(-289 -488)">
    <g id="Group_774" data-name="Group 774" class="cls-3" transform="translate(-1215.573 373.066)">
      <g id="Products_Sold_Graph" data-name="Products Sold Graph" class="cls-4" transform="translate(724.893)">
        <path id="Filled.Graph" class="cls-5" d="M330,728.623V527.514s365.927,131.911,658.3,140.2c316.151-8.029,370.9-64.482,617.155-140.2,210.438-63.108,420.3-80.428,621.733-75.969s376.02,72.632,613.957,79.618c419.748-28.146,633.9-170.451,662.264-229.886V803.418L330,803.641Z" transform="translate(-330 -301.277)"/>
      </g>
      <g id="Products_Sold_Graph-2" data-name="Products Sold Graph" class="cls-4" transform="translate(574.254 214.779)">
        <path id="Filled.Graph-2" data-name="Filled.Graph" class="cls-5" d="M330,728.623V527.514s365.927,131.911,658.3,140.2c316.151-8.029,370.9-64.482,617.155-140.2,210.438-63.108,420.3-80.428,621.733-75.969s376.02,72.632,613.957,79.618c419.748-28.146,633.9-170.451,662.264-229.886V803.418L330,803.641Z" transform="translate(-330 -301.277)"/>
      </g>
      <g id="Total_Views_Graph" data-name="Total Views Graph" class="cls-4" transform="translate(400.638 83.669)">
        <path id="Filled.Graph-3" data-name="Filled.Graph" class="cls-5" d="M330,661.524v-307.1S687.153,659.746,980.538,671.236c327.346-2.588,179.909-172.021,552.3-217.349,287.146-34.868,489.945,89.287,691.376,93.746s340.447-125.3,615.26-134.311C3195.528,426.9,3481.234,600.256,3503.4,609.577V736.319L330,736.542Z" transform="translate(-330 -354.422)"/>
      </g>
      <g id="Total_Views_Graph-2" data-name="Total Views Graph" class="cls-4" transform="translate(0 139.025)">
        <path id="Filled.Graph-4" data-name="Filled.Graph" class="cls-5" d="M330,661.524v-307.1S687.153,659.746,980.538,671.236c327.346-2.588,330.029-158.506,617.68-243.861,240.813-67.02,424.566,115.8,626,120.257s340.447-125.3,615.26-134.311C3195.528,426.9,3481.234,600.256,3503.4,609.577V736.319L330,736.542Z" transform="translate(-330 -354.422)"/>
      </g>
    </g>
  </g>
</svg>
