{
  "WEBFEEDER": {
    "URL_WEB_FEEDER_01": "wss://hb.intlfcstone.com/webfeeder/ws",
    "URL_WEB_FEEDER_02": "wss://hb.intlfcstone.com/webfeeder/ws",
    "URL_WEB_FEEDER_WSO2_01": "ws://10.1.6.14/ws",
    "URL_WEB_FEEDER_WSO2_02": "ws://10.1.6.14/ws"
  },
  "API_URLS": {
    "WEBFEEDER_REST_API": "https://hb.intlfcstone.com/services",
    "WORKSPACE_REST_API": "https://hb.intlfcstone.com/api",
    "WEBFEEDER_REST_WSO_API": "http://cadastrodigital.cedrotech.com:8280",
    "WORKSPACE_REST_WSO_API": "http://cadastrodigital.cedrotech.com/workspace",
    "CHART_TRADINGVIEW_WSO2_API": "http://localhost:9090",
    "WSO2": "http://cadastrodigital.cedrotech.com:8280",
    "CEDRO_ACCOUNT_API": "http://cadastrodigital.cedrotech.com",
    "FAST_MARKET": "https://www.fastmarkets.com.br",
    "YOUTUBE_LIVE": "https://www.googleapis.com/youtube",
    "CADASTRO": "http://cadastrodigital.cedrotech.com",
    "REDIRECT_LOGIN": "http://cadastrodigital.cedrotech.com/portal",
    "REDIRECT_LOGOUT": "https://uat.rbinvestimentos.com/portal"
  },
  "PATHS": {
    "ADVISOR": "cedro_identity_advisor_service/1.0.0/",
    "ALTERAR_CADASTRO": "cadastro/update-register/update",
    "SUITABILITY": "cadastro/update-register/suitability",
    "USER_IDENTITY": "cedro_identity_user_identity_service/1.0.0/",
    "WEBFEEDER": "webfeeder/1.0.0",
    "REGISTRATION_SYSTEM_SUITABILITY": "cedro_suitability_digital/1.0.0",
    "PORTAL_FACADE": "rbc_portal_facade/1.0.0",
    "TRADINGVIEW": "fasttrade_web_trading_view/1.0.0"
  },
  "SYSTEM_VARIABLES": {
    "ORDER_HISTORY_FILTER_RANGE": 30,
    "EXTRACT_FINANCIAL_FILTER_RANGE": 30,
    "MODAL_NEWS_FILTER_RANGE": 30
  }
}